\relax 
\providecommand\hyper@newdestlabel[2]{}
\AC@reset@newl@bel
\providecommand\HyperFirstAtBeginDocument{\AtBeginDocument}
\HyperFirstAtBeginDocument{\ifx\hyper@anchor\@undefined
\global\let\oldcontentsline\contentsline
\gdef\contentsline#1#2#3#4{\oldcontentsline{#1}{#2}{#3}}
\global\let\oldnewlabel\newlabel
\gdef\newlabel#1#2{\newlabelxx{#1}#2}
\gdef\newlabelxx#1#2#3#4#5#6{\oldnewlabel{#1}{{#2}{#3}}}
\AtEndDocument{\ifx\hyper@anchor\@undefined
\let\contentsline\oldcontentsline
\let\newlabel\oldnewlabel
\fi}
\fi}
\global\let\hyper@last\relax 
\gdef\HyperFirstAtBeginDocument#1{#1}
\providecommand\HyField@AuxAddToFields[1]{}
\providecommand\HyField@AuxAddToCoFields[2]{}
\@writefile{toc}{}
\@input{source/frontmatter/acknowledgement.aux}
\@input{source/frontmatter/abstract.aux}
\newlabel{pre:tableofcontents}{{}{iii}{\centering \contentsname }{section*.6}{}}
\@writefile{toc}{\contentsline {chapter}{\hspace  {\toc@tab@a }\MakeUppercase  {TABLE OF CONTENTS}}{iii}{section*.6}}
\newlabel{pre:listoftables}{{}{vi}{\centering \listtablename }{section*.8}{}}
\@writefile{toc}{\contentsline {chapter}{\hspace  {\toc@tab@a }\MakeUppercase  {LIST OF TABLES}}{vi}{section*.8}}
\newlabel{pre:listoffigures}{{}{vii}{\centering \listfigurename }{section*.10}{}}
\@writefile{toc}{\contentsline {chapter}{\hspace  {\toc@tab@a }\MakeUppercase  {LIST OF FIGURES}}{vii}{section*.10}}
\@input{source/frontmatter/abbre.aux}
\@input{source/main/chapter1.aux}
\@input{source/main/chapter2.aux}
\@input{source/main/chapter3.aux}
\@input{source/main/chapter4.aux}
\@input{source/main/chapter5.aux}
\bibdata{reference}
\bibcite{adi:2015}{{1}{2015}{{Adi}}{{}}}
\bibcite{amir:ghapar:jamal:ahmad:2014}{{2}{2014}{{Amir \emph  {et~al.}}}{{Amir, Ghapar and Salamiah~A.}}}
\bibcite{alshamrani:2015}{{3}{2015}{{Ashamrani and Bahattab}}{{}}}
\bibcite{astin:vogelgesang:ikeda:yee:2000}{{4}{2000}{{Astin \emph  {et~al.}}}{{Astin, Vogelgesang, Ikeda and Yee}}}
\bibcite{chandralal:2010}{{5}{2010}{{Chandralal}}{{}}}
\bibcite{cheyre:2005}{{6}{2005}{{Cheyre}}{{}}}
\bibcite{claburn:2018}{{7}{2018}{{Claburn}}{{}}}
\bibcite{conallen:1999}{{8}{1999}{{Conallen}}{{}}}
\newlabel{pre:references}{{5.3}{57}{\bibname }{section*.54}{}}
\@writefile{toc}{\addvspace {\@twolinespacing }}
\@writefile{toc}{\contentsline {chapter}{\MakeUppercase {REFERENCES}}{57}{section*.54}}
\bibcite{georgiev:jana:shmatikov:2014}{{9}{2014}{{Georgiev \emph  {et~al.}}}{{Georgiev, Jana and Shmatikov}}}
\bibcite{goadrich:2011}{{10}{2011}{{Goadrich}}{{}}}
\bibcite{idc:2018}{{11}{2018}{{IDC}}{{}}}
\bibcite{kumar:2013}{{12}{2013}{{Kumar and Dubey}}{{}}}
\bibcite{leler:2017}{{13}{2017}{{Leler}}{{}}}
\bibcite{marzuki:ali:othman:2010}{{14}{2010}{{Marzuki \emph  {et~al.}}}{{Marzuki, Ali and Othman}}}
\bibcite{apoorva:2013}{{15}{2013}{{Mishra}}{{}}}
\bibcite{poushter:2016}{{16}{2016}{{Poushter}}{{}}}
\bibcite{rickard:2016}{{17}{2016}{{Rickard}}{{}}}
\bibcite{rosler:nitze:2014}{{18}{2014}{{Rosler \emph  {et~al.}}}{{Rosler, Nitze and Schmietendorf}}}
\bibcite{ruparelia:2010}{{19}{2010}{{Ruparelia}}{{}}}
\bibcite{seifer:1998}{{20}{1998}{{Seifer}}{{}}}
\bibcite{thomas:2018}{{21}{2018}{{Thomas}}{{}}}
\bibstyle{utmthesis-authordate}
\@input{source/endmatter/appendix.aux}
