\relax 
\providecommand\hyper@newdestlabel[2]{}
\@writefile{toc}{\addvspace {\@twolinespacing }}
\@writefile{toc}{\contentsline {chapter}{\numberline {\MakeUppercase  {Chapter} 3}\MakeUppercase  {Methodology}}{39}{chapter.3}}
\@writefile{toc}{\contentsline {section}{\numberline {3.1}DevOps}{40}{section.3.1}}
\@writefile{lof}{\contentsline {figure}{\numberline {3.1}{\ignorespaces DevOps Lifecycle\relax }}{40}{figure.caption.41}}
\@writefile{toc}{\contentsline {section}{\numberline {3.2}DevOps lifecycle}{40}{section.3.2}}
\@writefile{toc}{\contentsline {subsection}{\numberline {3.2.1}Plan and measure}{41}{subsection.3.2.1}}
\@writefile{lof}{\contentsline {figure}{\numberline {3.2}{\ignorespaces Trello planning board\relax }}{41}{figure.caption.42}}
\@writefile{toc}{\contentsline {subsection}{\numberline {3.2.2}Develop and test}{42}{subsection.3.2.2}}
\@writefile{lof}{\contentsline {figure}{\numberline {3.3}{\ignorespaces Pekan Machan application repository\relax }}{43}{figure.caption.43}}
\@writefile{lof}{\contentsline {figure}{\numberline {3.4}{\ignorespaces Pekan Machan repository setup for CI/CD\relax }}{43}{figure.caption.44}}
\@writefile{lof}{\contentsline {figure}{\numberline {3.5}{\ignorespaces Test setup\relax }}{44}{figure.caption.45}}
\@writefile{lof}{\contentsline {figure}{\numberline {3.6}{\ignorespaces Pre-Test setup\relax }}{45}{figure.caption.46}}
\@writefile{toc}{\contentsline {subsection}{\numberline {3.2.3}Release and deploy}{45}{subsection.3.2.3}}
\@writefile{lof}{\contentsline {figure}{\numberline {3.7}{\ignorespaces Build options\relax }}{46}{figure.caption.47}}
\@writefile{lof}{\contentsline {figure}{\numberline {3.8}{\ignorespaces Publish options\relax }}{47}{figure.caption.48}}
\@writefile{toc}{\contentsline {subsection}{\numberline {3.2.4}Monitor and optimize}{47}{subsection.3.2.4}}
\@writefile{toc}{\contentsline {section}{\numberline {3.3}Chapter Summary}{47}{section.3.3}}
\@setckpt{source/main/chapter3}{
\setcounter{page}{48}
\setcounter{equation}{0}
\setcounter{enumi}{4}
\setcounter{enumii}{0}
\setcounter{enumiii}{0}
\setcounter{enumiv}{0}
\setcounter{footnote}{0}
\setcounter{mpfootnote}{0}
\setcounter{parentequation}{0}
\setcounter{Item}{6}
\setcounter{Hfootnote}{0}
\setcounter{bookmark@seq@number}{57}
\setcounter{part}{0}
\setcounter{chapter}{3}
\setcounter{section}{3}
\setcounter{subsection}{0}
\setcounter{subsubsection}{0}
\setcounter{paragraph}{0}
\setcounter{subparagraph}{0}
\setcounter{figure}{8}
\setcounter{table}{0}
\setcounter{max@tocdepth}{2}
\setcounter{max@secnumdepth}{2}
\setcounter{float@type}{32}
\setcounter{algorithm}{0}
\setcounter{AM@survey}{0}
\setcounter{lofdepth}{1}
\setcounter{lotdepth}{1}
\setcounter{utmthesis@temp@page}{0}
\setcounter{lips@count}{0}
\setcounter{ContinuedFloat}{0}
\setcounter{lstnumber}{1}
\setcounter{LT@tables}{0}
\setcounter{LT@chunks}{0}
\setcounter{NAT@ctr}{0}
\setcounter{tcbbreakpart}{0}
\setcounter{tcblayer}{0}
\setcounter{section@level}{1}
\setcounter{lstlisting}{0}
}
