\relax 
\providecommand\hyper@newdestlabel[2]{}
\@writefile{toc}{\addvspace {\@twolinespacing }}
\@writefile{toc}{\contentsline {chapter}{\numberline {\MakeUppercase  {Chapter} 2}\MakeUppercase  {Literature Review}}{4}{chapter.2}}
\citation{seifer:1998}
\citation{astin:vogelgesang:ikeda:yee:2000}
\citation{cheyre:2005}
\citation{amir:ghapar:jamal:ahmad:2014}
\citation{marzuki:ali:othman:2010}
\@writefile{toc}{\contentsline {section}{\numberline {2.1}Service Learning}{5}{section.2.1}}
\@writefile{toc}{\contentsline {section}{\numberline {2.2}Rural Tourism}{5}{section.2.2}}
\citation{thomas:2018}
\citation{chandralal:2010}
\citation{poushter:2016}
\@writefile{toc}{\contentsline {section}{\numberline {2.3}Mobile application development}{6}{section.2.3}}
\citation{idc:2018}
\@writefile{lof}{\contentsline {figure}{\numberline {2.1}{\ignorespaces Mobile marketshare by Operating System\relax }}{7}{figure.caption.13}}
\@writefile{lot}{\contentsline {table}{\numberline {2.1}{\ignorespaces Mobile Operating System marketshare table\relax }}{7}{table.caption.14}}
\@writefile{lof}{\contentsline {figure}{\numberline {2.2}{\ignorespaces Android version distribution\relax }}{8}{figure.caption.15}}
\citation{rosler:nitze:2014}
\@writefile{lof}{\contentsline {figure}{\numberline {2.3}{\ignorespaces iOS version distribution\relax }}{9}{figure.caption.16}}
\@writefile{toc}{\contentsline {section}{\numberline {2.4}Studies of Native Mobile Development}{9}{section.2.4}}
\@writefile{lof}{\contentsline {figure}{\numberline {2.4}{\ignorespaces Native mobile application versus Hybrid mobile application\relax }}{9}{figure.caption.17}}
\@writefile{toc}{\contentsline {subsection}{\numberline {2.4.1}Android mobile platform}{10}{subsection.2.4.1}}
\@writefile{lof}{\contentsline {figure}{\numberline {2.5}{\ignorespaces Android activity lifecycle\relax }}{10}{figure.caption.18}}
\citation{goadrich:2011}
\citation{goadrich:2011}
\@writefile{lof}{\contentsline {figure}{\numberline {2.6}{\ignorespaces Application structure in Android Studio\relax }}{11}{figure.caption.19}}
\@writefile{toc}{\contentsline {subsection}{\numberline {2.4.2}iOS mobile platform}{11}{subsection.2.4.2}}
\citation{rickard:2016}
\@writefile{toc}{\contentsline {section}{\numberline {2.5}HTML5 Hybrid Mobile Framework Development}{12}{section.2.5}}
\@writefile{lof}{\contentsline {figure}{\numberline {2.7}{\ignorespaces HTML5 hybrid framework architecture\relax }}{12}{figure.caption.20}}
\citation{georgiev:jana:shmatikov:2014}
\@writefile{toc}{\contentsline {section}{\numberline {2.6}Cross-Platform Mobile Development}{13}{section.2.6}}
\@writefile{toc}{\contentsline {subsection}{\numberline {2.6.1}Xamarin by Microsoft}{13}{subsection.2.6.1}}
\citation{claburn:2018}
\citation{claburn:2018}
\citation{leler:2017}
\citation{leler:2017}
\@writefile{toc}{\contentsline {subsection}{\numberline {2.6.2}Flutter by Google}{14}{subsection.2.6.2}}
\@writefile{lof}{\contentsline {figure}{\numberline {2.8}{\ignorespaces Flutter application framework architecture\relax }}{14}{figure.caption.21}}
\@writefile{lof}{\contentsline {figure}{\numberline {2.9}{\ignorespaces Flutter framework stack\relax }}{15}{figure.caption.22}}
\@writefile{toc}{\contentsline {subsection}{\numberline {2.6.3}React Native by Facebook}{15}{subsection.2.6.3}}
\citation{conallen:1999}
\@writefile{toc}{\contentsline {section}{\numberline {2.7}Web Application development}{16}{section.2.7}}
\citation{kumar:2013}
\@writefile{toc}{\contentsline {section}{\numberline {2.8}Software Development Models}{17}{section.2.8}}
\@writefile{toc}{\contentsline {subsection}{\numberline {2.8.1}Waterfall methodology}{18}{subsection.2.8.1}}
\@writefile{lof}{\contentsline {figure}{\numberline {2.10}{\ignorespaces Waterfall methodology lifecycle\relax }}{18}{figure.caption.23}}
\citation{alshamrani:2015}
\@writefile{toc}{\contentsline {subsection}{\numberline {2.8.2}Spiral model}{20}{subsection.2.8.2}}
\@writefile{lof}{\contentsline {figure}{\numberline {2.11}{\ignorespaces Spiral methodology lifecycle\relax }}{20}{figure.caption.24}}
\@writefile{toc}{\contentsline {subsection}{\numberline {2.8.3}Incremental Model}{22}{subsection.2.8.3}}
\@writefile{lof}{\contentsline {figure}{\numberline {2.12}{\ignorespaces Incremental methodology lifecycle\relax }}{22}{figure.caption.25}}
\citation{apoorva:2013}
\citation{ruparelia:2010}
\@writefile{toc}{\contentsline {subsection}{\numberline {2.8.4}V-Shaped model}{24}{subsection.2.8.4}}
\@writefile{lof}{\contentsline {figure}{\numberline {2.13}{\ignorespaces V-Shaped methodology lifecycle\relax }}{24}{figure.caption.26}}
\citation{adi:2015}
\@writefile{toc}{\contentsline {subsection}{\numberline {2.8.5}Scrum}{25}{subsection.2.8.5}}
\@writefile{lof}{\contentsline {figure}{\numberline {2.14}{\ignorespaces Scrum methodology lifecycle\relax }}{25}{figure.caption.27}}
\@writefile{toc}{\contentsline {section}{\numberline {2.9}Architecture of Pekan Machan Tourism mobile Application}{26}{section.2.9}}
\@writefile{lof}{\contentsline {figure}{\numberline {2.15}{\ignorespaces Pekan Machan tourism mobile application architecture\relax }}{26}{figure.caption.28}}
\@writefile{toc}{\contentsline {section}{\numberline {2.10}Proposed design}{27}{section.2.10}}
\@writefile{toc}{\contentsline {subsection}{\numberline {2.10.1}Login screen}{27}{subsection.2.10.1}}
\@writefile{lof}{\contentsline {figure}{\numberline {2.16}{\ignorespaces Login screen by OAuth\relax }}{27}{figure.caption.29}}
\@writefile{toc}{\contentsline {subsection}{\numberline {2.10.2}Main navigation}{28}{subsection.2.10.2}}
\@writefile{lof}{\contentsline {figure}{\numberline {2.17}{\ignorespaces Login screen by OAuth\relax }}{28}{figure.caption.30}}
\@writefile{toc}{\contentsline {subsection}{\numberline {2.10.3}Maps}{29}{subsection.2.10.3}}
\@writefile{lof}{\contentsline {figure}{\numberline {2.18}{\ignorespaces Location navigation\relax }}{29}{figure.caption.31}}
\@writefile{toc}{\contentsline {section}{\numberline {2.11}Hardware Requirements}{30}{section.2.11}}
\@writefile{toc}{\contentsline {subsection}{\numberline {2.11.1}Smartphone for prototyping}{30}{subsection.2.11.1}}
\@writefile{lof}{\contentsline {figure}{\numberline {2.19}{\ignorespaces Android smartphone\relax }}{30}{figure.caption.32}}
\@writefile{toc}{\contentsline {subsection}{\numberline {2.11.2}Personal computer for development}{31}{subsection.2.11.2}}
\@writefile{lof}{\contentsline {figure}{\numberline {2.20}{\ignorespaces Personal computer\relax }}{31}{figure.caption.33}}
\@writefile{toc}{\contentsline {section}{\numberline {2.12}Studies of existing systems}{32}{section.2.12}}
\@writefile{toc}{\contentsline {subsection}{\numberline {2.12.1}Visit Korea}{32}{subsection.2.12.1}}
\@writefile{lof}{\contentsline {figure}{\numberline {2.21}{\ignorespaces Visit Korea\relax }}{32}{figure.caption.34}}
\@writefile{toc}{\contentsline {subsection}{\numberline {2.12.2}Kerala Tourism}{33}{subsection.2.12.2}}
\@writefile{lof}{\contentsline {figure}{\numberline {2.22}{\ignorespaces Visit Kerala Tourism homepage\relax }}{33}{figure.caption.35}}
\@writefile{toc}{\contentsline {subsection}{\numberline {2.12.3}Tanzania Tourism}{34}{subsection.2.12.3}}
\@writefile{lof}{\contentsline {figure}{\numberline {2.23}{\ignorespaces Tanzania Tourism\relax }}{34}{figure.caption.36}}
\@writefile{toc}{\contentsline {section}{\numberline {2.13}Software Requirements}{35}{section.2.13}}
\@writefile{toc}{\contentsline {subsection}{\numberline {2.13.1}IDE}{35}{subsection.2.13.1}}
\@writefile{lof}{\contentsline {figure}{\numberline {2.24}{\ignorespaces Android studio running on OpenSuse Linux\relax }}{35}{figure.caption.37}}
\@writefile{toc}{\contentsline {subsection}{\numberline {2.13.2}Image Manipulation program}{36}{subsection.2.13.2}}
\@writefile{lof}{\contentsline {figure}{\numberline {2.25}{\ignorespaces GIMP version 2.10.8\relax }}{36}{figure.caption.38}}
\@writefile{toc}{\contentsline {subsection}{\numberline {2.13.3}Operating System}{36}{subsection.2.13.3}}
\@writefile{lof}{\contentsline {figure}{\numberline {2.26}{\ignorespaces Android Oreo 8.0\relax }}{37}{figure.caption.39}}
\@writefile{toc}{\contentsline {subsection}{\numberline {2.13.4}Flutter SDK}{37}{subsection.2.13.4}}
\@writefile{lof}{\contentsline {figure}{\numberline {2.27}{\ignorespaces Flutter doctor, one of command from Flutter SDK\relax }}{38}{figure.caption.40}}
\@writefile{toc}{\contentsline {section}{\numberline {2.14}Chapter Summary}{38}{section.2.14}}
\@setckpt{source/main/chapter2}{
\setcounter{page}{39}
\setcounter{equation}{0}
\setcounter{enumi}{4}
\setcounter{enumii}{0}
\setcounter{enumiii}{0}
\setcounter{enumiv}{0}
\setcounter{footnote}{0}
\setcounter{mpfootnote}{0}
\setcounter{parentequation}{0}
\setcounter{Item}{6}
\setcounter{Hfootnote}{0}
\setcounter{bookmark@seq@number}{49}
\setcounter{part}{0}
\setcounter{chapter}{2}
\setcounter{section}{14}
\setcounter{subsection}{0}
\setcounter{subsubsection}{0}
\setcounter{paragraph}{0}
\setcounter{subparagraph}{0}
\setcounter{figure}{27}
\setcounter{table}{1}
\setcounter{max@tocdepth}{2}
\setcounter{max@secnumdepth}{2}
\setcounter{float@type}{32}
\setcounter{algorithm}{0}
\setcounter{AM@survey}{0}
\setcounter{lofdepth}{1}
\setcounter{lotdepth}{1}
\setcounter{utmthesis@temp@page}{0}
\setcounter{lips@count}{0}
\setcounter{ContinuedFloat}{0}
\setcounter{lstnumber}{1}
\setcounter{LT@tables}{0}
\setcounter{LT@chunks}{0}
\setcounter{NAT@ctr}{0}
\setcounter{tcbbreakpart}{0}
\setcounter{tcblayer}{0}
\setcounter{section@level}{1}
\setcounter{lstlisting}{0}
}
