\relax 
\providecommand\hyper@newdestlabel[2]{}
\@writefile{toc}{\addvspace {\@twolinespacing }}
\@writefile{toc}{\contentsline {chapter}{\numberline {\MakeUppercase  {Chapter} 1}\MakeUppercase  {Introduction}}{1}{chapter.1}}
\@writefile{toc}{\contentsline {section}{\numberline {1.1}Background}{1}{section.1.1}}
\@writefile{toc}{\contentsline {section}{\numberline {1.2}Problem Statement}{2}{section.1.2}}
\@writefile{toc}{\contentsline {section}{\numberline {1.3}Objective}{2}{section.1.3}}
\@writefile{toc}{\contentsline {section}{\numberline {1.4}Project Scope}{2}{section.1.4}}
\@writefile{toc}{\contentsline {section}{\numberline {1.5}Chapter Summary}{3}{section.1.5}}
\@setckpt{source/main/chapter1}{
\setcounter{page}{4}
\setcounter{equation}{0}
\setcounter{enumi}{4}
\setcounter{enumii}{0}
\setcounter{enumiii}{0}
\setcounter{enumiv}{0}
\setcounter{footnote}{0}
\setcounter{mpfootnote}{0}
\setcounter{parentequation}{0}
\setcounter{Item}{6}
\setcounter{Hfootnote}{0}
\setcounter{bookmark@seq@number}{12}
\setcounter{part}{0}
\setcounter{chapter}{1}
\setcounter{section}{5}
\setcounter{subsection}{0}
\setcounter{subsubsection}{0}
\setcounter{paragraph}{0}
\setcounter{subparagraph}{0}
\setcounter{figure}{0}
\setcounter{table}{0}
\setcounter{max@tocdepth}{2}
\setcounter{max@secnumdepth}{2}
\setcounter{float@type}{32}
\setcounter{algorithm}{0}
\setcounter{AM@survey}{0}
\setcounter{lofdepth}{1}
\setcounter{lotdepth}{1}
\setcounter{utmthesis@temp@page}{0}
\setcounter{lips@count}{0}
\setcounter{ContinuedFloat}{0}
\setcounter{lstnumber}{1}
\setcounter{LT@tables}{0}
\setcounter{LT@chunks}{0}
\setcounter{NAT@ctr}{0}
\setcounter{tcbbreakpart}{0}
\setcounter{tcblayer}{0}
\setcounter{section@level}{1}
\setcounter{lstlisting}{0}
}
