\relax 
\providecommand\hyper@newdestlabel[2]{}
\@writefile{toc}{\addvspace {\@twolinespacing }}
\@writefile{toc}{\contentsline {chapter}{\numberline {\MakeUppercase  {Chapter} 4}\MakeUppercase  {Result and Discussions}}{48}{chapter.4}}
\@writefile{toc}{\contentsline {section}{\numberline {4.1}Project implementation}{48}{section.4.1}}
\@writefile{lof}{\contentsline {figure}{\numberline {4.1}{\ignorespaces Pekan Machan application welcome\relax }}{48}{figure.caption.49}}
\@writefile{lof}{\contentsline {figure}{\numberline {4.2}{\ignorespaces Home\relax }}{49}{figure.caption.50}}
\@writefile{lof}{\contentsline {figure}{\numberline {4.3}{\ignorespaces Sliding navigation\relax }}{50}{figure.caption.51}}
\@writefile{lof}{\contentsline {figure}{\numberline {4.4}{\ignorespaces About\relax }}{51}{figure.caption.52}}
\@writefile{lof}{\contentsline {figure}{\numberline {4.5}{\ignorespaces Main Content\relax }}{52}{figure.caption.53}}
\@writefile{toc}{\contentsline {subsection}{\numberline {4.1.1}Application Evaluation using Shneiderman 8 Golden rule}{52}{subsection.4.1.1}}
\@writefile{toc}{\contentsline {section}{\numberline {4.2}Chapter Summary}{54}{section.4.2}}
\@setckpt{source/main/chapter4}{
\setcounter{page}{55}
\setcounter{equation}{0}
\setcounter{enumi}{4}
\setcounter{enumii}{0}
\setcounter{enumiii}{0}
\setcounter{enumiv}{0}
\setcounter{footnote}{0}
\setcounter{mpfootnote}{0}
\setcounter{parentequation}{0}
\setcounter{Item}{6}
\setcounter{Hfootnote}{0}
\setcounter{bookmark@seq@number}{61}
\setcounter{part}{0}
\setcounter{chapter}{4}
\setcounter{section}{2}
\setcounter{subsection}{0}
\setcounter{subsubsection}{0}
\setcounter{paragraph}{0}
\setcounter{subparagraph}{0}
\setcounter{figure}{5}
\setcounter{table}{0}
\setcounter{max@tocdepth}{2}
\setcounter{max@secnumdepth}{2}
\setcounter{float@type}{32}
\setcounter{algorithm}{0}
\setcounter{AM@survey}{0}
\setcounter{lofdepth}{1}
\setcounter{lotdepth}{1}
\setcounter{utmthesis@temp@page}{0}
\setcounter{lips@count}{0}
\setcounter{ContinuedFloat}{0}
\setcounter{lstnumber}{1}
\setcounter{LT@tables}{0}
\setcounter{LT@chunks}{0}
\setcounter{NAT@ctr}{0}
\setcounter{tcbbreakpart}{0}
\setcounter{tcblayer}{0}
\setcounter{section@level}{1}
\setcounter{lstlisting}{0}
}
