\relax 
\providecommand\hyper@newdestlabel[2]{}
\newlabel{pre:listofabbre}{{}{ix}{\centering \listabbrename }{section*.12}{}}
\@writefile{toc}{\contentsline {chapter}{\hspace  {\toc@tab@a }\MakeUppercase  {LIST OF ABBREVIATIONS}}{ix}{section*.12}}
\@writefile{loabbre}{\makeabbretable {PC}{Personal Computer}}
\@writefile{loabbre}{\makeabbretable {XML}{Extensible Markup Language}}
\@writefile{loabbre}{\makeabbretable {HTML}{Hypertext Markup Language}}
\@writefile{loabbre}{\makeabbretable {SDLC}{System Development Lifecycle}}
\@writefile{loabbre}{\makeabbretable {DevOps}{Developments and Operations}}
\@writefile{loabbre}{\makeabbretable {IT}{Information technology}}
\@setckpt{source/frontmatter/abbre}{
\setcounter{page}{10}
\setcounter{equation}{0}
\setcounter{enumi}{0}
\setcounter{enumii}{0}
\setcounter{enumiii}{0}
\setcounter{enumiv}{0}
\setcounter{footnote}{0}
\setcounter{mpfootnote}{0}
\setcounter{parentequation}{0}
\setcounter{Item}{0}
\setcounter{Hfootnote}{0}
\setcounter{bookmark@seq@number}{6}
\setcounter{part}{0}
\setcounter{chapter}{0}
\setcounter{section}{0}
\setcounter{subsection}{0}
\setcounter{subsubsection}{0}
\setcounter{paragraph}{0}
\setcounter{subparagraph}{0}
\setcounter{figure}{0}
\setcounter{table}{0}
\setcounter{max@tocdepth}{2}
\setcounter{max@secnumdepth}{2}
\setcounter{float@type}{32}
\setcounter{algorithm}{0}
\setcounter{AM@survey}{0}
\setcounter{lofdepth}{1}
\setcounter{lotdepth}{1}
\setcounter{utmthesis@temp@page}{0}
\setcounter{lips@count}{0}
\setcounter{ContinuedFloat}{0}
\setcounter{lstnumber}{1}
\setcounter{LT@tables}{0}
\setcounter{LT@chunks}{0}
\setcounter{NAT@ctr}{0}
\setcounter{tcbbreakpart}{0}
\setcounter{tcblayer}{0}
\setcounter{section@level}{0}
\setcounter{lstlisting}{0}
}
